<?xml version="1.0" standalone="no"?>
<!DOCTYPE svg PUBLIC "-//W3C//DTD SVG 1.1//EN" "http://www.w3.org/Graphics/SVG/1.1/DTD/svg11.dtd">
<svg xmlns="http://www.w3.org/2000/svg">
<metadata>Generated by Fontastic.me</metadata>
<defs>
<font id="pedidosya" horiz-adv-x="512">
<font-face font-family="pedidosya" units-per-em="512" ascent="480" descent="-32"/>
<missing-glyph horiz-adv-x="512" />

<glyph glyph-name="bebidas-launcher" unicode="&#97;" d="M284 308l65 0c5 0 9-4 9-8 0-5-4-9-9-9l-65 0c-5 0-8 4-8 9 0 4 3 8 8 8z m-7 7c0 0-5 0-8-3-3-3-3-8-3-8l0-54c0 0-1-17 16-29 12-9 19-11 19-11l7-57c0 0-17-3-24-6-7-4-11-7-10-11 2-6 12-7 12-7l27 0 0 0 2 0 3 0 0 0 26 0c0 0 10 1 12 7 1 4-3 7-10 11-7 3-24 6-24 6l7 57c0 0 7 2 19 11 17 12 16 29 16 29l0 54c0 0 0 5-3 8-3 3-8 3-8 3z m-106 95c0 0-2 0-3-2 0-2 0-5 0-5l1-7-4 0c-1-3 0-7 0-9l4 0c0 0 1-17 1-25 0-9-7-14-13-21-5-6-8-9-8-18 0-8 1-18-3-24-3-6-14-16-14-25-1-10 0-122 0-122 0 0 0-11 7-18 8-6 16-7 16-7l63 0c0 0 8 1 16 7 7 7 7 18 7 18 0 0 1 112 0 122 0 9-11 19-14 25-4 6-3 16-3 24 0 9-3 12-8 18-6 7-13 12-13 21 0 8 1 25 1 25l4 0c1 2 1 6 0 9l-4 0 1 7c0 0 0 3 0 5-1 2-3 2-3 2z m342-154c0-142-115-257-257-257-141 0-256 115-256 257 0 141 115 256 256 256 142 0 257-115 257-256z"/>
<glyph glyph-name="cafes-launcher" unicode="&#98;" d="M513 256c0-142-115-257-257-257-141 0-256 115-256 257 0 141 115 256 256 256 142 0 257-115 257-256z m-247 188c0 0-32-8-32-41 0-33 26-48 32-62 4-13 2-16 1-25 0 0 23-2 23 32 0 33-24 54-28 70-3 13 4 26 4 26z m-59-39c0 0-24-6-24-29 0-22 20-33 24-43 3-9 1-11 1-18 0 0 17-1 17 23 0 23-18 37-21 49-2 9 3 18 3 18z m-77-107c-7 0-12-5-12-12 0-4 2-8 6-10-2-16-2-45 14-76 25-46 44-65 44-65 0 0 0-4 2-7 4-5 5-5 5-5l103 0c0 0 2 0 5 5 2 3 2 7 2 7 0 0 9 9 23 29 6-1 16-1 27 1 18 2 41 10 54 31 11 19 13 37 9 51-3 14-11 25-21 30-4 2-9 3-13 4-7 1-14-1-20-4-1 1-1 2-1 2 2 2 2 5 2 7 0 7-5 12-12 12z m244-44c1 0 3 0 5-1 0 0 5-5 7-12 2-7 2-17-6-31-7-11-21-16-35-18-3-1-5-1-7-1 2 3 4 6 5 9 7 13 11 25 13 36 4 2 7 6 7 10 1 1 1 2 3 4 2 2 5 4 8 4z"/>
<glyph glyph-name="farmacias-launcher" unicode="&#99;" d="M513 256c0-142-115-257-257-257-141 0-256 115-256 257 0 141 115 256 256 256 142 0 257-115 257-256z m-283 124c-8 0-15-7-15-16l0-67-67 0c-9 0-16-7-16-15l0-52c0-9 7-16 16-16l67 0 0-67c0-8 7-15 15-15l52 0c9 0 16 7 16 15l0 67 67 0c8 0 15 7 15 16l0 52c0 8-7 15-15 15l-67 0 0 67c0 9-7 16-16 16z"/>
<glyph glyph-name="flores-launcher" unicode="&#100;" d="M255 441c-29 0-52-23-52-52 0-1 0-1 0-2-6 2-12 3-18 3-29 0-52-23-52-52 0-23 15-43 36-50-7-9-11-20-11-31 0-29 24-53 52-53 13 0 25 5 35 13l0-149c0-6 4-10 10-10 6 0 10 4 10 10l0 146c9-7 21-12 33-12 29 0 52 24 52 53 0 12-4 24-12 33 23 6 39 27 39 50 0 29-24 53-52 53-7 0-13-1-18-3 0 0 0 0 0 1 0 29-23 52-52 52z m1-94c18 0 32-15 32-33 0-18-14-32-32-32-18 0-33 14-33 32 0 18 15 33 33 33z m-102-156c-18-1-29-8-31-11-3-8 6-35 44-55 37-19 57-9 57-9 0 0-10 18-29 29-19 12-48 23-48 23 0 0 37-5 57-18 20-13 33-28 33-28 0 0-5 38-45 59-14 7-27 10-38 10z m193-3c-9 0-20-3-33-9-34-19-39-53-39-53 0 0 12 13 29 25 18 12 49 16 49 16 0 0-25-10-41-21-17-10-25-26-25-26 0 0 16-9 49 9 33 17 41 42 38 49-1 3-11 9-27 10z m166 68c0-142-115-257-257-257-141 0-256 115-256 257 0 141 115 256 256 256 142 0 257-115 257-256z"/>
<glyph glyph-name="mascotas-launcher" unicode="&#101;" d="M513 256c0-142-115-257-257-257-141 0-256 115-256 257 0 141 115 256 256 256 142 0 257-115 257-256z m-291 132c-22 0-39-20-39-45 0-25 17-45 39-45 22 0 40 20 40 45 0 25-18 45-40 45z m87-19c-12 0-25-6-34-16-16-19-15-45 2-58 17-14 43-10 59 9 16 18 15 44-2 57-6 6-15 9-25 8z m-164-42c-5 1-9 0-13-2-17-8-25-31-17-52 8-20 29-31 47-24 18 8 25 31 17 52-6 16-20 26-34 26z m210-31c-13 0-26-8-34-21-11-20-7-44 9-54 17-10 39-3 50 17 12 19 7 43-9 53-5 3-10 5-16 5z m-122-9c-13 0-27-4-40-13-23-18-46-68-51-81-5-14-4-39 21-52 20-12 33 0 56 4 9 1 18 0 27 0 23-4 36-16 56-4 25 13 26 38 21 52-5 13-28 63-51 81-12 8-26 13-39 13z"/>
<glyph glyph-name="restaurant-launcher" unicode="&#102;" d="M513 256c0-142-115-257-257-257-141 0-256 115-256 257 0 141 115 256 256 256 142 0 257-115 257-256z m-201 138c-16 0-29-13-29-29l0-102c0-15 2-26 25-27l0-102c0-22 34-22 33 0l0 129c0 0 0 0 0 0l0 102c0 16-13 29-29 29z m-132-1c-5 0-9-4-9-9l0-74c0 0 0-1 0-1 0 0 0 0 0 0 0-13 9-25 20-30l0-145c0-6 3-11 9-14 5-3 11-3 16 0 5 3 8 8 8 14l0 145c12 5 20 17 20 30 0 0 0 0 0 0 0 0 0 1 0 1l0 74c0 2-1 4-2 6-2 2-4 3-7 3-4 0-8-4-8-9l0-46c0 0 0 0 0 0l0-17c0-5-3-6-5-6-3 0-5 1-5 6l0 21c0 0 0 0 0 0l0 42c0 2-1 4-3 6-2 2-4 3-6 3-5 0-9-4-9-9l0-42c0 0 0 0 0 0l0-21c0-5-2-6-5-6-3 0-5 1-5 6l0 17c0 0 0 0 0 0l0 46c0 2-1 4-3 6-1 2-4 3-6 3z"/>
<glyph glyph-name="supermarket-launcher-new" unicode="&#103;" d="M513 256c0-142-115-257-257-257-141 0-256 115-256 257 0 141 115 256 256 256 142 0 257-115 257-256z m-292 134c-1 0-1 0-2 0-3 0-6-2-8-5l-35-63 23 0 30 53c3 5 1 11-4 14-1 1-3 1-4 1z m70 0c-1 0-3 0-4-1-5-3-7-9-4-14l30-53 23 0-36 63c-1 3-4 5-8 5 0 0 0 0-1 0z m7-155c5 0 9-5 9-10l0-61c0-6-4-10-9-10-6 0-10 4-10 10l0 61c0 5 4 10 10 10z m-32 0c6 0 10-5 10-10l0-61c0-6-4-10-10-10-5 0-9 4-9 10l0 61c0 5 4 10 9 10z m-31 0c5 0 9-5 9-10l0-61c0-6-4-10-9-10-5 0-9 4-9 10l0 61c0 5 4 10 9 10z m-31 0c5 0 9-5 9-10l0-61c0-6-4-10-9-10-6 0-10 4-10 10l0 61c0 5 4 10 10 10z m-77 71c-10 0-18-8-18-18l0-20c0-9 8-17 18-17l11 0 15-94c2-14 11-26 25-26l145 0c14 0 23 12 26 26l14 94 12 0c9 0 17 8 17 17l0 20c0 10-8 18-17 18z"/>
<glyph glyph-name="tiendas-launcher" unicode="&#104;" d="M260 418c-30 0-54-25-54-55l0-10-30 0c-11 0-19-9-19-20l-11-175c0-12 10-22 22-22l180 0c12 0 22 10 22 22l-11 175c0 11-8 20-19 20l-26 0 0 10c0 30-24 55-54 55z m0-19c19 0 35-16 35-36l0-10-69 0 0 10c0 20 15 36 34 36z m253-143c0-142-115-257-257-257-141 0-256 115-256 257 0 141 115 256 256 256 142 0 257-115 257-256z"/>
</font></defs></svg>
